%YAML 1.1
%TAG !u! tag:unity3d.com,2011:
--- !u!78 &1
TagManager:
  serializedVersion: 2
  tags: []
  layers:
  - Default
  - TransparentFX
  - Ignore Raycast
  - 
  - Water
  - UI
  - 
  - 
  - Free placements
  - 
  - 
  - 
  - 
  - 
  - 
  - 
  - 
  - 
  - 
  - 
  - 
  - 
  - 
  - 
  - 
  - 
  - 
  - 
  - 
  - 
  - 
  - 
  m_SortingLayers:
  - name: Default
    uniqueID: 0
    locked: 0
  - name: Background
    uniqueID: 1117122809
    locked: 0
  - name: Ground
    uniqueID: 2129765385
    locked: 0
  - name: Special tiles
    uniqueID: 324404931
    locked: 0
  - name: Monsters
    uniqueID: 2997024543
    locked: 0
  - name: Bullets
    uniqueID: 538204327
    locked: 0
  - name: Debug
    uniqueID: 2957540657
    locked: 0
