{ "height":1,
 "layers":[
        {
         "height":0,
         "image":"stage_1_background.png",
         "name":"Background",
         "opacity":1,
         "type":"imagelayer",
         "visible":true,
         "width":0,
         "x":0,
         "y":0
        }, 
        {
         "height":1,
         "image":"..\/..\/..\/..\/..\/Users\/Otsego\/Desktop\/chrome_2017-01-11_14-36-10.png",
         "name":"template",
         "offsetx":5.6843418860808e-14,
         "offsety":0,
         "opacity":0.479999989271164,
         "type":"imagelayer",
         "visible":false,
         "width":1,
         "x":0,
         "y":0
        }, 
        {
         "draworder":"topdown",
         "height":1,
         "name":"FreePlacements",
         "objects":[
                {
                 "gid":3,
                 "height":16,
                 "id":95,
                 "name":"",
                 "rotation":0,
                 "type":"",
                 "visible":true,
                 "width":16,
                 "x":431.333333333333,
                 "y":337.083333333333
                }, 
                {
                 "gid":3,
                 "height":16,
                 "id":96,
                 "name":"",
                 "rotation":0,
                 "type":"",
                 "visible":true,
                 "width":16,
                 "x":336.666666666667,
                 "y":371.166666666667
                }, 
                {
                 "gid":3,
                 "height":16,
                 "id":97,
                 "name":"",
                 "rotation":0,
                 "type":"",
                 "visible":true,
                 "width":16,
                 "x":447.5,
                 "y":519.666666666667
                }, 
                {
                 "gid":3,
                 "height":16,
                 "id":98,
                 "name":"",
                 "rotation":0,
                 "type":"",
                 "visible":true,
                 "width":16,
                 "x":441.791666666667,
                 "y":607.416666666667
                }, 
                {
                 "gid":3,
                 "height":16,
                 "id":99,
                 "name":"",
                 "rotation":0,
                 "type":"",
                 "visible":true,
                 "width":16,
                 "x":551.666666666667,
                 "y":606.909090909091
                }, 
                {
                 "gid":3,
                 "height":16,
                 "id":100,
                 "name":"",
                 "rotation":0,
                 "type":"",
                 "visible":true,
                 "width":16,
                 "x":762.727272727273,
                 "y":625.909090909091
                }, 
                {
                 "gid":3,
                 "height":16,
                 "id":101,
                 "name":"",
                 "rotation":0,
                 "type":"",
                 "visible":true,
                 "width":16,
                 "x":646.1875,
                 "y":753.6875
                }, 
                {
                 "gid":3,
                 "height":16,
                 "id":102,
                 "name":"",
                 "rotation":0,
                 "type":"",
                 "visible":true,
                 "width":16,
                 "x":939.5625,
                 "y":716.958333333333
                }],
         "opacity":1,
         "type":"objectgroup",
         "visible":true,
         "width":1,
         "x":0,
         "y":0
        }, 
        {
         "draworder":"topdown",
         "height":1,
         "name":"Path1",
         "objects":[
                {
                 "height":0,
                 "id":103,
                 "name":"",
                 "polyline":[
                        {
                         "x":10.6666666666667,
                         "y":8.66666666666667
                        }, 
                        {
                         "x":15.9999999999999,
                         "y":136.333333333333
                        }, 
                        {
                         "x":25.3333333333332,
                         "y":246.5
                        }, 
                        {
                         "x":26.3333333333333,
                         "y":325.25
                        }, 
                        {
                         "x":22.6666666666665,
                         "y":360
                        }, 
                        {
                         "x":5.66666666666657,
                         "y":384.166666666667
                        }, 
                        {
                         "x":-16.0000000000001,
                         "y":399.666666666667
                        }, 
                        {
                         "x":-48.1666666666667,
                         "y":412.083333333333
                        }, 
                        {
                         "x":-99.6666666666667,
                         "y":429.833333333333
                        }, 
                        {
                         "x":-149.166666666667,
                         "y":455.583333333333
                        }, 
                        {
                         "x":-184.666666666667,
                         "y":488.666666666667
                        }, 
                        {
                         "x":-206,
                         "y":522.666666666667
                        }, 
                        {
                         "x":-226.666666666667,
                         "y":574.666666666667
                        }, 
                        {
                         "x":-221.333333333333,
                         "y":630.666666666667
                        }, 
                        {
                         "x":-196.666666666667,
                         "y":686.666666666667
                        }, 
                        {
                         "x":-143.333333333333,
                         "y":726
                        }, 
                        {
                         "x":-74.6666666666667,
                         "y":749.333333333333
                        }, 
                        {
                         "x":10.6666666666666,
                         "y":754
                        }, 
                        {
                         "x":84.6666666666667,
                         "y":738.666666666667
                        }, 
                        {
                         "x":144,
                         "y":732.666666666667
                        }, 
                        {
                         "x":206,
                         "y":747.333333333333
                        }, 
                        {
                         "x":258.666666666667,
                         "y":772
                        }, 
                        {
                         "x":314.666666666667,
                         "y":770.666666666667
                        }, 
                        {
                         "x":358.666666666667,
                         "y":746.666666666667
                        }, 
                        {
                         "x":397.333333333333,
                         "y":694.333333333333
                        }, 
                        {
                         "x":463.666666666667,
                         "y":648
                        }, 
                        {
                         "x":556,
                         "y":637.333333333333
                        }, 
                        {
                         "x":712,
                         "y":636
                        }],
                 "rotation":0,
                 "type":"",
                 "visible":true,
                 "width":0,
                 "x":509.333333333333,
                 "y":-30.6666666666667
                }, 
                {
                 "height":0,
                 "id":106,
                 "name":"",
                 "polyline":[
                        {
                         "x":14.6666666666666,
                         "y":2.66666666666667
                        }, 
                        {
                         "x":13.3333333333333,
                         "y":349.333333333333
                        }, 
                        {
                         "x":-8,
                         "y":394.666666666667
                        }, 
                        {
                         "x":-88,
                         "y":442.666666666667
                        }, 
                        {
                         "x":-174.666666666667,
                         "y":481.333333333333
                        }, 
                        {
                         "x":-218.666666666667,
                         "y":546.666666666667
                        }, 
                        {
                         "x":-225.333333333333,
                         "y":620
                        }, 
                        {
                         "x":-193.333333333333,
                         "y":672
                        }, 
                        {
                         "x":-117.333333333333,
                         "y":708
                        }, 
                        {
                         "x":-18.6666666666667,
                         "y":709.333333333333
                        }, 
                        {
                         "x":44,
                         "y":693.333333333333
                        }, 
                        {
                         "x":104,
                         "y":688
                        }, 
                        {
                         "x":212,
                         "y":721.333333333333
                        }, 
                        {
                         "x":280,
                         "y":720
                        }, 
                        {
                         "x":342.666666666667,
                         "y":660
                        }, 
                        {
                         "x":400,
                         "y":610.666666666667
                        }, 
                        {
                         "x":520,
                         "y":594.666666666667
                        }, 
                        {
                         "x":669.333333333333,
                         "y":597.333333333333
                        }],
                 "rotation":0,
                 "type":"",
                 "visible":true,
                 "width":0,
                 "x":552,
                 "y":-25.3333333333333
                }, 
                {
                 "height":0,
                 "id":107,
                 "name":"",
                 "polyline":[
                        {
                         "x":5.33333333333326,
                         "y":2.66666666666666
                        }, 
                        {
                         "x":5.33333333333337,
                         "y":80
                        }, 
                        {
                         "x":1.33333333333337,
                         "y":204
                        }, 
                        {
                         "x":6.66666666666663,
                         "y":304
                        }, 
                        {
                         "x":2.66666666666663,
                         "y":348
                        }, 
                        {
                         "x":-17.3333333333334,
                         "y":396
                        }, 
                        {
                         "x":-52,
                         "y":442.666666666667
                        }, 
                        {
                         "x":-109.333333333333,
                         "y":468
                        }, 
                        {
                         "x":-190.666666666667,
                         "y":496
                        }, 
                        {
                         "x":-206.666666666667,
                         "y":505.333333333333
                        }, 
                        {
                         "x":-220,
                         "y":524
                        }, 
                        {
                         "x":-232,
                         "y":549.333333333333
                        }, 
                        {
                         "x":-237.333333333333,
                         "y":574.666666666667
                        }, 
                        {
                         "x":-236,
                         "y":602.666666666667
                        }, 
                        {
                         "x":-229.333333333333,
                         "y":626.666666666667
                        }, 
                        {
                         "x":-218.666666666667,
                         "y":644
                        }, 
                        {
                         "x":-204,
                         "y":658.666666666667
                        }, 
                        {
                         "x":-184,
                         "y":670.666666666667
                        }, 
                        {
                         "x":-148,
                         "y":682.666666666667
                        }, 
                        {
                         "x":-66.6666666666666,
                         "y":685.333333333333
                        }, 
                        {
                         "x":1.33333333333337,
                         "y":673.333333333333
                        }, 
                        {
                         "x":48,
                         "y":661.333333333333
                        }, 
                        {
                         "x":66.6666666666666,
                         "y":661.333333333333
                        }, 
                        {
                         "x":90.6666666666666,
                         "y":665.333333333333
                        }, 
                        {
                         "x":114.666666666667,
                         "y":676
                        }, 
                        {
                         "x":146.666666666667,
                         "y":688
                        }, 
                        {
                         "x":176,
                         "y":694.666666666667
                        }, 
                        {
                         "x":192,
                         "y":694.666666666667
                        }, 
                        {
                         "x":220,
                         "y":682.666666666667
                        }, 
                        {
                         "x":249.333333333333,
                         "y":665.333333333333
                        }, 
                        {
                         "x":269.333333333333,
                         "y":638.666666666667
                        }, 
                        {
                         "x":292,
                         "y":608
                        }, 
                        {
                         "x":324,
                         "y":580
                        }, 
                        {
                         "x":362.666666666667,
                         "y":569.333333333333
                        }, 
                        {
                         "x":621.333333333333,
                         "y":565.333333333333
                        }],
                 "rotation":0,
                 "type":"",
                 "visible":true,
                 "width":0,
                 "x":598.666666666667,
                 "y":-24
                }],
         "opacity":1,
         "type":"objectgroup",
         "visible":true,
         "width":1,
         "x":0,
         "y":0
        }],
 "nextobjectid":108,
 "orientation":"orthogonal",
 "renderorder":"right-down",
 "tileheight":1000,
 "tilesets":[
        {
         "columns":16,
         "firstgid":1,
         "image":"..\/..\/Graphics\/Tilesets\/Resources\/SpecialTileset.png",
         "imageheight":256,
         "imagewidth":256,
         "margin":0,
         "name":"SpecialTileset",
         "spacing":0,
         "tilecount":256,
         "tileheight":16,
         "tilewidth":16
        }],
 "tilewidth":1200,
 "version":1,
 "width":1
}